%YAML 1.1
%TAG !u! tag:unity3d.com,2011:
--- !u!114 &11400000
MonoBehaviour:
  m_ObjectHideFlags: 0
  m_CorrespondingSourceObject: {fileID: 0}
  m_PrefabInstance: {fileID: 0}
  m_PrefabAsset: {fileID: 0}
  m_GameObject: {fileID: 0}
  m_Enabled: 1
  m_EditorHideFlags: 0
  m_Script: {fileID: 11500000, guid: 9cb7fc5191474148804acef151bfe03c, type: 3}
  m_Name: Story6
  m_EditorClassIdentifier: 
  text: Arthur recalls a strange black door in the house, that door had no key, no
    door knob, it was just a plain piece of black wood with a room behind it. He
    always felt a connection with it, maybe if he can find a way to unlock that door,
    he can know what is the cause of the strange things happening in the house, maybe
    he can find why his siblings suffered such horrifying deaths.
