%YAML 1.1
%TAG !u! tag:unity3d.com,2011:
--- !u!1045 &1
EditorBuildSettings:
  m_ObjectHideFlags: 0
  serializedVersion: 2
  m_Scenes:
  - enabled: 1
    path: Assets/Scenes/Main_Menu.unity
    guid: a9851c117934fec4498107b6a2051bb4
  - enabled: 1
    path: Assets/Scenes/House1.unity
    guid: 6638c2e4a6a57cd4e9581077bdb03d58
  - enabled: 1
    path: Assets/Scenes/House2.unity
    guid: 3db9d1e88aff188488d8c2dc4547697a
  - enabled: 1
    path: Assets/Scenes/House3.unity
    guid: 5e0904d9e98c3b74db4efd7333f3bc70
  - enabled: 1
    path: Assets/Scenes/House4.unity
    guid: 01b3f6b18470f1a4d8af098d7c97f7c5
  - enabled: 1
    path: Assets/Scenes/House5.unity
    guid: 72ce799bd2c8ac34d85ea44f6c06e9c1
  m_configObjects: {}
