%YAML 1.1
%TAG !u! tag:unity3d.com,2011:
--- !u!114 &-8331282082216798695
MonoBehaviour:
  m_ObjectHideFlags: 3
  m_CorrespondingSourceObject: {fileID: 0}
  m_PrefabInstance: {fileID: 0}
  m_PrefabAsset: {fileID: 0}
  m_GameObject: {fileID: 0}
  m_Enabled: 1
  m_EditorHideFlags: 0
  m_Script: {fileID: 11500000, guid: 29fa0085f50d5e54f8144f766051a691, type: 3}
  m_Name: FilmGrain
  m_EditorClassIdentifier: 
  active: 1
  m_AdvancedMode: 0
  type:
    m_OverrideState: 1
    m_Value: 0
  intensity:
    m_OverrideState: 1
    m_Value: 0.502
    min: 0
    max: 1
  response:
    m_OverrideState: 1
    m_Value: 0.8
    min: 0
    max: 1
  texture:
    m_OverrideState: 1
    m_Value: {fileID: 0}
--- !u!114 &-2707037813648907117
MonoBehaviour:
  m_ObjectHideFlags: 3
  m_CorrespondingSourceObject: {fileID: 0}
  m_PrefabInstance: {fileID: 0}
  m_PrefabAsset: {fileID: 0}
  m_GameObject: {fileID: 0}
  m_Enabled: 1
  m_EditorHideFlags: 0
  m_Script: {fileID: 11500000, guid: 899c54efeace73346a0a16faa3afe726, type: 3}
  m_Name: Vignette
  m_EditorClassIdentifier: 
  active: 0
  m_AdvancedMode: 0
  color:
    m_OverrideState: 1
    m_Value: {r: 0, g: 0, b: 0, a: 1}
    hdr: 0
    showAlpha: 0
    showEyeDropper: 1
  center:
    m_OverrideState: 1
    m_Value: {x: 0.5, y: 0.5}
  intensity:
    m_OverrideState: 1
    m_Value: 0.383
    min: 0
    max: 1
  smoothness:
    m_OverrideState: 1
    m_Value: 0.788
    min: 0.01
    max: 1
  rounded:
    m_OverrideState: 1
    m_Value: 1
--- !u!114 &-312008003776034
MonoBehaviour:
  m_ObjectHideFlags: 3
  m_CorrespondingSourceObject: {fileID: 0}
  m_PrefabInstance: {fileID: 0}
  m_PrefabAsset: {fileID: 0}
  m_GameObject: {fileID: 0}
  m_Enabled: 1
  m_EditorHideFlags: 0
  m_Script: {fileID: 11500000, guid: 81180773991d8724ab7f2d216912b564, type: 3}
  m_Name: ChromaticAberration
  m_EditorClassIdentifier: 
  active: 1
  m_AdvancedMode: 0
  intensity:
    m_OverrideState: 1
    m_Value: 0.317
    min: 0
    max: 1
--- !u!114 &11400000
MonoBehaviour:
  m_ObjectHideFlags: 0
  m_CorrespondingSourceObject: {fileID: 0}
  m_PrefabInstance: {fileID: 0}
  m_PrefabAsset: {fileID: 0}
  m_GameObject: {fileID: 0}
  m_Enabled: 1
  m_EditorHideFlags: 0
  m_Script: {fileID: 11500000, guid: d7fd9488000d3734a9e00ee676215985, type: 3}
  m_Name: Main Camera Profile
  m_EditorClassIdentifier: 
  components:
  - {fileID: -312008003776034}
  - {fileID: -8331282082216798695}
  - {fileID: -2707037813648907117}
  - {fileID: 7794802147479364432}
  - {fileID: 7586509804841548327}
  - {fileID: 7222955952066341727}
  - {fileID: 886418050119132373}
  - {fileID: 1395420153540060906}
  - {fileID: 6029670767594236431}
--- !u!114 &886418050119132373
MonoBehaviour:
  m_ObjectHideFlags: 3
  m_CorrespondingSourceObject: {fileID: 0}
  m_PrefabInstance: {fileID: 0}
  m_PrefabAsset: {fileID: 0}
  m_GameObject: {fileID: 0}
  m_Enabled: 1
  m_EditorHideFlags: 0
  m_Script: {fileID: 11500000, guid: 558a8e2b6826cf840aae193990ba9f2e, type: 3}
  m_Name: ShadowsMidtonesHighlights
  m_EditorClassIdentifier: 
  active: 1
  m_AdvancedMode: 0
  shadows:
    m_OverrideState: 1
    m_Value: {x: 1, y: 0.9019954, z: 0.90589213, w: 0}
  midtones:
    m_OverrideState: 1
    m_Value: {x: 0.7269091, y: 0.81034267, z: 1, w: 0.468047}
  highlights:
    m_OverrideState: 1
    m_Value: {x: 0.8509699, y: 0.9523625, z: 1, w: -0.009000902}
  shadowsStart:
    m_OverrideState: 1
    m_Value: 0
    min: 0
  shadowsEnd:
    m_OverrideState: 1
    m_Value: 0.3
    min: 0
  highlightsStart:
    m_OverrideState: 1
    m_Value: 0.55
    min: 0
  highlightsEnd:
    m_OverrideState: 1
    m_Value: 1
    min: 0
--- !u!114 &1395420153540060906
MonoBehaviour:
  m_ObjectHideFlags: 3
  m_CorrespondingSourceObject: {fileID: 0}
  m_PrefabInstance: {fileID: 0}
  m_PrefabAsset: {fileID: 0}
  m_GameObject: {fileID: 0}
  m_Enabled: 1
  m_EditorHideFlags: 0
  m_Script: {fileID: 11500000, guid: 5485954d14dfb9a4c8ead8edb0ded5b1, type: 3}
  m_Name: LiftGammaGain
  m_EditorClassIdentifier: 
  active: 1
  m_AdvancedMode: 0
  lift:
    m_OverrideState: 1
    m_Value: {x: 0.9114309, y: 0.94323665, z: 1, w: 0}
  gamma:
    m_OverrideState: 1
    m_Value: {x: 0.80363095, y: 0.81949025, z: 1, w: 0}
  gain:
    m_OverrideState: 1
    m_Value: {x: 0.9389398, y: 0.93430763, z: 1, w: 0}
--- !u!114 &6029670767594236431
MonoBehaviour:
  m_ObjectHideFlags: 3
  m_CorrespondingSourceObject: {fileID: 0}
  m_PrefabInstance: {fileID: 0}
  m_PrefabAsset: {fileID: 0}
  m_GameObject: {fileID: 0}
  m_Enabled: 1
  m_EditorHideFlags: 0
  m_Script: {fileID: 11500000, guid: 0b2db86121404754db890f4c8dfe81b2, type: 3}
  m_Name: Bloom
  m_EditorClassIdentifier: 
  active: 1
  m_AdvancedMode: 0
  threshold:
    m_OverrideState: 1
    m_Value: 2.38
    min: 0
  intensity:
    m_OverrideState: 1
    m_Value: 4.31
    min: 0
  scatter:
    m_OverrideState: 1
    m_Value: 0.7
    min: 0
    max: 1
  clamp:
    m_OverrideState: 1
    m_Value: 65472
    min: 0
  tint:
    m_OverrideState: 1
    m_Value: {r: 1, g: 1, b: 1, a: 1}
    hdr: 0
    showAlpha: 0
    showEyeDropper: 1
  highQualityFiltering:
    m_OverrideState: 1
    m_Value: 0
  skipIterations:
    m_OverrideState: 1
    m_Value: 1
    min: 0
    max: 16
  dirtTexture:
    m_OverrideState: 1
    m_Value: {fileID: 0}
  dirtIntensity:
    m_OverrideState: 1
    m_Value: 0
    min: 0
--- !u!114 &7222955952066341727
MonoBehaviour:
  m_ObjectHideFlags: 3
  m_CorrespondingSourceObject: {fileID: 0}
  m_PrefabInstance: {fileID: 0}
  m_PrefabAsset: {fileID: 0}
  m_GameObject: {fileID: 0}
  m_Enabled: 1
  m_EditorHideFlags: 0
  m_Script: {fileID: 11500000, guid: 66f335fb1ffd8684294ad653bf1c7564, type: 3}
  m_Name: ColorAdjustments
  m_EditorClassIdentifier: 
  active: 1
  m_AdvancedMode: 0
  postExposure:
    m_OverrideState: 1
    m_Value: 0.16
  contrast:
    m_OverrideState: 1
    m_Value: -26.6
    min: -100
    max: 100
  colorFilter:
    m_OverrideState: 1
    m_Value: {r: 1, g: 1, b: 1, a: 1}
    hdr: 1
    showAlpha: 0
    showEyeDropper: 1
  hueShift:
    m_OverrideState: 1
    m_Value: 0
    min: -180
    max: 180
  saturation:
    m_OverrideState: 1
    m_Value: -10
    min: -100
    max: 100
--- !u!114 &7586509804841548327
MonoBehaviour:
  m_ObjectHideFlags: 3
  m_CorrespondingSourceObject: {fileID: 0}
  m_PrefabInstance: {fileID: 0}
  m_PrefabAsset: {fileID: 0}
  m_GameObject: {fileID: 0}
  m_Enabled: 1
  m_EditorHideFlags: 0
  m_Script: {fileID: 11500000, guid: 97c23e3b12dc18c42a140437e53d3951, type: 3}
  m_Name: Tonemapping
  m_EditorClassIdentifier: 
  active: 1
  m_AdvancedMode: 0
  mode:
    m_OverrideState: 1
    m_Value: 2
--- !u!114 &7794802147479364432
MonoBehaviour:
  m_ObjectHideFlags: 3
  m_CorrespondingSourceObject: {fileID: 0}
  m_PrefabInstance: {fileID: 0}
  m_PrefabAsset: {fileID: 0}
  m_GameObject: {fileID: 0}
  m_Enabled: 1
  m_EditorHideFlags: 0
  m_Script: {fileID: 11500000, guid: c5e1dc532bcb41949b58bc4f2abfbb7e, type: 3}
  m_Name: LensDistortion
  m_EditorClassIdentifier: 
  active: 1
  m_AdvancedMode: 0
  intensity:
    m_OverrideState: 1
    m_Value: -0.149
    min: -1
    max: 1
  xMultiplier:
    m_OverrideState: 1
    m_Value: 1
    min: 0
    max: 1
  yMultiplier:
    m_OverrideState: 1
    m_Value: 1
    min: 0
    max: 1
  center:
    m_OverrideState: 1
    m_Value: {x: 0.5, y: 0.5}
  scale:
    m_OverrideState: 1
    m_Value: 1
    min: 0.01
    max: 5
